Final Project
…
slice(db, c(1))

## # A tibble: 1 x 12
##   country  year sex   age   suicides_no population `suicides/100k ~
##   <chr>   <dbl> <chr> <chr>       <dbl>      <dbl>            <dbl>
## 1 Albania  1987 male  15-2~          21     312900             6.71
## # ... with 5 more variables: `country-year` <chr>, `HDI for year` <dbl>,
## #   `gdp_for_year ($)` <dbl>, `gdp_per_capita ($)` <dbl>, generation <chr>

If we want to see the values on the specific index of column, we can use the funciton select(db, 1).

select(db,c(1))

## # A tibble: 27,820 x 1
##    country
##    <chr>  
##  1 Albania
##  2 Albania
##  3 Albania
##  4 Albania
##  5 Albania
##  6 Albania
##  7 Albania
##  8 Albania
##  9 Albania
## 10 Albania
## # ... with 27,810 more rows
…
When doing data analysis, it is very likely that we will apply some constraints for the data, such as we only want the data from the year 1987.

The function filter() can help us take out the data we need, and filter out those unnecessary/unrelated data.

In R, we use ==, !=, >, < to make comparisons. When we want to check if the year is equal to 1987, we can use year == 1987.

filter(db, year == 1987)

## # A tibble: 648 x 12
##    country  year sex   age   suicides_no population `suicides/100k ~
##    <chr>   <dbl> <chr> <chr>       <dbl>      <dbl>            <dbl>
##  1 Albania  1987 male  15-2~          21     312900             6.71
##  2 Albania  1987 male  35-5~          16     308000             5.19
##  3 Albania  1987 fema~ 15-2~          14     289700             4.83
##  4 Albania  1987 male  75+ ~           1      21800             4.59
##  5 Albania  1987 male  25-3~           9     274300             3.28
##  6 Albania  1987 fema~ 75+ ~           1      35600             2.81
##  7 Albania  1987 fema~ 35-5~           6     278800             2.15
##  8 Albania  1987 fema~ 25-3~           4     257200             1.56
##  9 Albania  1987 male  55-7~           1     137500             0.73
## 10 Albania  1987 fema~ 5-14~           0     311000             0   
## # ... with 638 more rows, and 5 more variables: `country-year` <chr>, `HDI
## #   for year` <dbl>, `gdp_for_year ($)` <dbl>, `gdp_per_capita ($)` <dbl>,
## #   generation <chr>
…
Here, we first select the data for year 1987, then we slice the first row of that dataset.

Create new attributes.

When dealing with the current dataset, it is common for data scientist to add more necessary attributues based on the current dataset to make it more readable.

Adding more attributes is similar to adding more columns in the data table. The function mutate creates new attributes based on the result of a given expression.

db %>%
  mutate(ratio = suicides_no / population)

## # A tibble: 27,820 x 13
##    country  year sex   age   suicides_no population `suicides/100k ~
##    <chr>   <dbl> <chr> <chr>       <dbl>      <dbl>            <dbl>
##  1 Albania  1987 male  15-2~          21     312900             6.71
##  2 Albania  1987 male  35-5~          16     308000             5.19
##  3 Albania  1987 fema~ 15-2~          14     289700             4.83
##  4 Albania  1987 male  75+ ~           1      21800             4.59
##  5 Albania  1987 male  25-3~           9     274300             3.28
##  6 Albania  1987 fema~ 75+ ~           1      35600             2.81
##  7 Albania  1987 fema~ 35-5~           6     278800             2.15
##  8 Albania  1987 fema~ 25-3~           4     257200             1.56
##  9 Albania  1987 male  55-7~           1     137500             0.73
## 10 Albania  1987 fema~ 5-14~           0     311000             0   
## # ... with 27,810 more rows, and 6 more variables: `country-year` <chr>,
## #   `HDI for year` <dbl>, `gdp_for_year ($)` <dbl>, `gdp_per_capita
## #   ($)` <dbl>, generation <chr>, ratio <dbl>
…
Mean, Median, sd, min, max, n, n_distinct, any, all, all of these are summarize functions you can use when trying to analyze your dataset.

Group entities

The group_by function in essence annotates the rows of a data frame as belonging to a specific group based on the value of some chosen attributes. This call returns a data frame that is grouped by the value of the district attribute.

Remember that group_by function always combined with summarize functions.

db %>% 
  group_by(year) %>%
  summarize(total_suicide = sum(suicides_no))

## # A tibble: 32 x 2
##     year total_suicide
##    <dbl>         <dbl>
##  1  1985        116063
##  2  1986        120670
##  3  1987        126842
##  4  1988        121026
##  5  1989        160244
##  6  1990        193361
##  7  1991        198020
##  8  1992        211473
##  9  1993        221565
## 10  1994        232063
## # ... with 22 more rows
…
